<svg xmlns="http://www.w3.org/2000/svg" width="9.85" height="6.926" viewBox="0 0 9.85 6.926">
  <path id="button-arrow" d="M6.633,4.778a.349.349,0,0,0-.5.491L8.654,7.787H.348A.346.346,0,0,0,0,8.135a.35.35,0,0,0,.348.353H8.654L6.137,11a.356.356,0,0,0,0,.5.348.348,0,0,0,.5,0L9.746,8.383a.342.342,0,0,0,0-.491Z" transform="translate(0 -4.674)" fill="#444"/>
</svg>
