<svg xmlns="http://www.w3.org/2000/svg" width="8.182" height="14.109" viewBox="0 0 8.182 14.109">
  <g id="slider-right" transform="translate(8.182 14.109) rotate(180)">
    <g id="Group_7" data-name="Group 7" transform="translate(0 0)">
      <path id="Path_102" data-name="Path 102" d="M7.263,14.109l.919-.945-6.29-6.11L8.182.946,7.263,0,0,7.054Z" fill="#fff"/>
    </g>
  </g>
</svg>
