<svg id="slider-left" xmlns="http://www.w3.org/2000/svg" width="8.182" height="14.109" viewBox="0 0 8.182 14.109">
  <g id="Group_7" data-name="Group 7" transform="translate(0 0)">
    <path id="Path_102" data-name="Path 102" d="M7.263,0l.919.945-6.29,6.11,6.29,6.108-.919.946L0,7.055Z" fill="#fff"/>
  </g>
</svg>
