<svg xmlns="http://www.w3.org/2000/svg" width="17.188" height="19.202" viewBox="0 0 17.188 19.202">
  <path id="wrench" d="M17.688,11.058a1.648,1.648,0,0,0-1.646-1.646H14.124V6.837A3.636,3.636,0,0,0,13.593.289L12.83,0V2.443l-.526.325-.526-.325V0l-.763.289a3.637,3.637,0,0,0-.5,6.565v.758H8.127L5.1,10.045H4.706v-.9H.5V19.2H4.706V18.135L6.757,19.2h8.135v-.031a1.645,1.645,0,0,0,1.12-2.417,1.644,1.644,0,0,0,.507-2.183A1.642,1.642,0,0,0,17,12.4,1.645,1.645,0,0,0,17.688,11.058ZM9.794,3.69A2.523,2.523,0,0,1,10.651,1.8V3.071L12.3,4.092l1.653-1.021V1.8A2.508,2.508,0,0,1,13.33,5.98L13,6.13V9.412H11.639V6.138L11.3,5.991A2.511,2.511,0,0,1,9.794,3.69ZM3.58,18.076H1.626v-7.8H3.58Zm11,0H7.033L4.706,16.865V11.171H5.5L8.523,8.739H10.5v1.8h5.545a.52.52,0,1,1,0,1.04H12.76V12.7h2.816a.52.52,0,0,1,0,1.04h-3.3v1.126h2.816a.52.52,0,1,1,0,1.04H11.76v1.126h2.816a.52.52,0,1,1,0,1.039Zm0,0" transform="translate(-0.5)"/>
</svg>
